{
  "Meta": {
  },
  "data": {
    "registrationtypeId": {
      "type": "dropdown",
      "mandatory": false,
      "xpath": "//gc-mat-select[@id='RegistrationtypeId']",
      "tcpath": [
        "patregi",
        "registrationtypeId"
      ]
    },
    "patienttypeId": {
      "type": "dropdown",
      "mandatory": false,
      "xpath": "//gc-mat-select[@id='PatienttypeId']",
      "tcpath": [
        "patregi",
        "patienttypeId"
      ]
    },
    "patientprefixId": {
      "type": "dropdown",
      "mandatory": true,
      "xpath": "//gc-mat-select[@id='PatientprefixId']",
      "tcpath": [
        "patregi",
        "patientprefixId"
      ]
    },
    "firstName": {
      "type": "textbox",
      "mandatory": true,
      "xpath": "//input[@data-placeholder=\"Patient First Name\"]",
      "tcpath": [
        "patregi",
        "firstName"
      ]
    },
    "middleName": {
      "type": "textbox",
      "mandatory": false,
      "xpath": "//input[@data-placeholder=\"Patient Middle Name\"]",
      "tcpath": [
        "patregi",
        "middleName"
      ]
    },
    "lastName": {
      "type": "textbox",
      "mandatory": true,
      "xpath": "//input[@data-placeholder=\"Patient Last Name\"]",
      "tcpath": [
        "patregi",
        "lastName"
      ]
    },
    "dob": {
      "type": "textbox",
      "mandatory": false,
      "xpath": "//input[@data-placeholder=\"Date of Birth\"]",
      "tcpath": [
        "patregi",
        "dob"
      ]
    },
    "PCDetails": {
      "type": "button",
      "mandatory": false,
      "xpath": "//div[contains(text(),'Personal & Identity Information')]",
      "tcpath": []
    },
    "New": {
      "type": "button",
      "mandatory": false,
      "xpath": "//label[contains(text(),'New')]",
      "tcpath": []
    },
    "identificationType": {
      "type": "dropdown",
      "mandatory": true,
      "xpath": "//mat-select[@name=\"row_identificationTypeId\"]",
      "tcpath": [
        "patientPersonalIdentificationDetails",
        "identificationType"
      ]
    },
    "identificationNo": {
      "type": "textbox",
      "mandatory": true,
      "xpath": "//input[@name=\"row_identificationNo\"]",
      "tcpath": [
        "patientPersonalIdentificationDetails",
        "identificationNo"
      ]
    },
    "savegrid": {
      "type": "button",
      "mandatory": true,
      "xpath": "//mat-icon[contains(text(),'save')]",
      "tcpath": []
    },
    "contactdetails": {
      "type": "button",
      "mandatory": false,
      "xpath": "//div[contains(text(),'Contact')]",
      "tcpath": []
    },
    "mobileNo": {
      "type": "textbox",
      "mandatory": true,
      "xpath": "//input[@data-placeholder=\"Mobile Phone Number\"]",
      "tcpath": [
        "patientContactDetail",
        "mobileNo"
      ]
    },
    "registration": {
      "type": "button",
      "mandatory": false,
      "xpath": "//div[@tabindex=\"-1\"]//div[contains(text(),'Registration')]",
      "tcpath": []
    },
    "save": {
      "type": "button",
      "mandatory": false,
      "xpath": "//label[contains(text(),'Save')]",
      "tcpath": []
    },
    "Ok": {
      "type": "button",
      "mandatory": false,
      "xpath": "//button[contains(text(),'Ok')]",
      "tcpath": []
    }
  }
}