{
  "Meta": {
  },
  "data": {
    "chiefcomp": {
      "type": "button",
      "mandatory": false,
      "xpath": "//h2[contains(text(),'CHIEF COMPLAINTS')]",
      "tcpath": []
    },
    "addchiefcomp": {
      "type": "button",
      "mandatory": false,
      "xpath": "//input[@Placeholder=\"Chief Complaints\"]",
      "tcpath": []
    },
    "selectdata": {
      "type": "button",
      "mandatory": false,
      "xpath": "//label[contains(text(),'Disturbed Sleep')]",
      "tcpath": []
    },
    "close": {
      "type": "button",
      "mandatory": false,
      "xpath": "//div//button[1]//label[contains(text(),'Close')]",
      "tcpath": []
    }
  }
}