{
  "Meta": {
  },
  "data": {
    "Medication": {
      "type": "button",
      "mandatory": false,
      "xpath": "//h2[contains(text(),'MEDICATIONS')]",
      "tcpath": []
    },
    "enterdrugname": {
      "type": "serachtext",
      "mandatory": false,
      "xpath": "//input[@name=\"item_filterSearchData\"]",
      "tcpath": ["","itemName"]
    },
    "Configure": {
      "type": "button",
      "mandatory": false,
      "xpath": "//label[contains(text(),'Configure')]",
      "tcpath": []
    },
    "Unit": {
      "type": "button",
      "mandatory": false,
      "xpath": "//li[contains(text(),' 9 ')]",
      "tcpath": []
    },
    "Route": {
      "type": "button",
      "mandatory": false,
      "xpath": "//li[contains(text(),' Ears ')]",
      "tcpath": []
    },
    "Frequency": {
      "type": "button",
      "mandatory": false,
      "xpath": "//li[contains(text(),' 1 Time A Day ')]",
      "tcpath": []
    },
    "Direction": {
      "type": "button",
      "mandatory": false,
      "xpath": "//li[contains(text(),' After Breakfast ')]",
      "tcpath": []
    },
    "Duration": {
      "type": "button",
      "mandatory": false,
      "xpath": "//li[contains(text(),' 10 Days ')]",
      "tcpath": []
    },
    "SaveConfigure": {
      "type": "button",
      "mandatory": false,
      "xpath": "//div[@class=\"modal-body modal-body-medication\"]//label[contains(text(),'Save')]",
      "tcpath": []
    },
    "Save": {
      "type": "button",
      "mandatory": false,
      "xpath": "//div[@class=\"col-md-12 medical-detail\"]//label[contains(text(),'Save & Close')]",
      "tcpath": []
    },
    "Save&Sign": {
      "type": "button",
      "mandatory": false,
      "xpath": "//button[contains(text(),'Save & Sign')]",
      "tcpath": []
    }
  }
}