{
  "meta": {
    "Module": "Medication",
    "testCaseId": "TC03_Add Appointment",
    "entity": "medication.json",
    "entityPath": "resources/entity/DWB/"
  },
  "data": [
    {
      "Medication": [
    {
      "doctorId": "1de9046a-b413-45ca-a6cb-e8d7e7a57efb",
      "moduleId": "c2baa00a-a291-496c-9187-c78e9a39805c",
      "itemDetail": {
        "startDateAndTime": "2022-07-09T09:57:25.732Z",
        "priority": "ROUTINE",
        "durationDays": 10,
        "totalQuantity": 90,
        "displayMedication": "Detail for Drox 500mg Tablet ( Cefadroxil 500 mg )",
        "intakeUnit": 9,
        "routeOfAdministration": "3b4b6eba-4b56-4daa-9c63-3e717dfd0c23",
        "drugForm": "0016f0e9-1b70-4550-be4b-582e44361358",
        "strengthWithuom": " 500",
        "freeTextSig": "Take 9 Tablet Ears 1 Time A Day After Breakfast for 10 Days",
        "amount": null,
        "frequency": "fcdf65a6-b0e1-4555-892b-2edae299b3e3",
        "duration": "ada2173f-0d77-4714-befb-02f857bb4761",
        "directions": "c65c7ed8-14ec-47bb-a6f9-38b99dc49fb4"
      },
      "moduleName": "Drugs",
      "itemRemarks": "Take 9 Tablet Ears 1 Time A Day After Breakfast for 10 Days",
      "itemName": "Drox 500mg Tablet"
    },
        {
          "complete": "yes"
        }
        ]
      }
  ]
}

