{
  "meta": {
    "Module": "labbill",
    "testCaseId": "TC03_Add Lab bill",
    "entity": "labbill.json",
    "entityPath": "resources/entity/laboratory/"
  },
  "data": [
    {
      "labbill": [
        {
          "NavigateByURL": "https://app.softclinicgenx.com/laboratory/labrequisitions/create"
        },
        {
          "investigation": "",
          "invoiceMasterDetail": {
            "isGenerateInvoice": true,
            "isSummaryInvoice": true,
            "isDetailInvoice": true,
            "isSettlement": true,
            "settlementType": "FullSettlement"
          },
          "invoiceDiscount": {
            "discountValue": 0,
            "discountAmount": 0,
            "discountMethod": "Amount",
            "discountType": "Header"
          },
          "priorityText": "R",
          "sendToDetail": {},
          "patregiDetails": {
            "imagePath": {
              "changingThisBreaksApplicationSecurity": "./assets/images/avatars/female-shape.png"
            },
            "motherCrNo": "Rutvi Patel",
            "firstName": "Rutvi",
            "lastName": "Patel",
            "displayName": "XRLOsbBlF9/MnonwQJlEZPRwSA3ugXCBOxxG4/lQKfc=",
            "displayCode": "PRR2022-7-200004",
            "dob": "1994-01-01T00:00:00.000Z",
            "gender": "FEMALE",
            "mobileNo": "9924019944",
            "middleName": null,
            "email": "rutvipatel@yopmail.com",
            "patientprefixId": "f4f600a8-098f-4d7b-ac0a-4000ff37f299",
            "patientId": "4c84e96b-1df6-4cdf-8560-a9c44ea2911f",
            "doctorName": "",
            "ageGender": "28 Years / Female",
            "age": "28 Years",
            "address": "",
            "referredBy": "Nehal",
            "registrationtypeId": "2f551539-ac03-4190-9c4a-36357b9d5b72"
          },
          "empid": "cc603d1a-e85f-4328-8376-a8752eae1e33",
          "requisitionorderEntryDtl": [
            {
              "tax": 0,
              "investigationId": "cb789803-1f02-4c0c-80de-cf0a8c60616c",
              "investigationName": "C-Reactive Protein Cardio",
              "description": "",
              "price": 440,
              "net": 440,
              "srNo": 1,
              "serviceId": "ea6e01b6-17e3-45e0-8290-3ae9fb03066a",
              "displayPrice": "440.00",
              "displayNet": "440.00",
              "displaytax": "0.00",
              "rowIdentifier": "4678e74e-cf8c-49da-8a7c-66d59f743777"
            }
          ],
          "invoicePaymentDetails": [
            {
              "paymentType": "Cash",
              "currencyName": "Indian Rupees",
              "chequeDate": "2022-07-08T11:32:06.182Z",
              "cardType": "",
              "paidDate": "2022-07-08T11:32:06.647Z",
              "eWalletType": "",
              "totalAmount": 0,
              "toBeCollected": 0,
              "currencyId": "c21e8504-0272-47f1-9ca8-34364a3c818b",
              "baseCurrencyId": "c21e8504-0272-47f1-9ca8-34364a3c818b",
              "receivedAmount": 440,
              "displayreceivedamount": 440,
              "rowIdentifier": "1ceb68eb-92f9-427b-923a-03513c3c83d0"
            }
          ],
          "invoicePayment": {
            "totalAmount": 440,
            "toBeCollected": 0,
            "totalBillAmount": 440,
            "discountAmount": 0
          },
          "sampleCollect": false,
          "reportWhatsapp": false,
          "reportEmail": false,
          "reportPrint": true,
          "facilityId": " New Born Child Care And Specialist ",
          "departmentId": " New Born Gynec Dept ",
          "clinicId": " New Born Gynec Clinic 2 ",
          "doctorId": "0840a6f0-94f6-4de4-8ea7-066079672a17",
          "quickReport": false,
          "patientId": "4c84e96b-1df6-4cdf-8560-a9c44ea2911f"
        },
        {
          "complete": "yes"
        }
      ]
    }
  ]
}