{
  "meta": {
    "testCaseId": "TC03_Add Appointment",
    "entity": "appointmentlist.json",
    "entityPath": "resources/entity/appointment/"
  },
  "data": [
    {
      "NavigateByMenu": [
        "//*[@id=\"divmainMenu\"]/button[3]//em[@class=\"pe-7s-date vsm-icon\"]"
      ]
    },
    {
      "visitType": "OUTPATIENT",
      "externalPatient": false,
      "isReferralPatient": false,
      "appointmentCategoryId": "ee417305-658d-4785-8de5-5dc2406e2a59",
      "patientCondition": "",
      "serviceId": " VIP case ",
      "appointmentStatus": " Confirmed ",
      "actionName": "",
      "statusChange": "",
      "patienteligibilitydetailModel": {
        "eligibilityType": 1
      },
      "referralDetailsModel": {
        "referredFrom": 1,
        "referredByName": "00000000-0000-0000-0000-000000000000",
        "address": "",
        "cityId": "00000000-0000-0000-0000-000000000000",
        "stateId": "00000000-0000-0000-0000-000000000000",
        "countryId": "00000000-0000-0000-0000-000000000000",
        "phoneNumber": "",
        "email": "",
        "referralReasonRemarks": ""
      },
      "packageDetailsModel": [],
      "otherDetailsModel": {},
      "appointmentRecursive": {
        "recurrenceType": "weekly",
        "startTime": "11:16",
        "endTime": "11:31"
      },
      "appointmentDate": "2022-03-03",
      "startTime": "11:16",
      "endTime": "11:31",
      "imagePath": {
        "changingThisBreaksApplicationSecurity": "./assets/images/avatars/man-shape.png"
      },
      "facilityId": " Starjvs Hospital 1 ",
      "doctorId": " Dr.  Rutvik  Patel ",
      "motherCrNo": "Ronit ",
      "visitTypeId": "Out Patient",
      "code": "Auto generated",
      "departmentId": " Opd ",
      "clinicId": " Opd ",
      "firstName": "Ron",
      "lastName": "",
      "displayName": "F166jFYJ7uAkGBxFfxjEu0yPKr3TfE14glNiWpp0ugY=",
      "displayCode": "00005",
      "dob": "01/01/1992 (30 Years)",
      "gender": "Male",
      "mobileNo": "7043373483",
      "patientId": "1dfcb36d-934c-4b6e-988b-51235feec892",
      "ageGender": "30 Years / Male",
      "age": "30 Years",
      "previousAppointmentsModel": [],
      "address": "",
      "status": "ACTIVE",
      "name": "Ronit"
    },
    {
      "click": "Add"
    },
    {
      "click": "View"
    },
    {
      "click": "appointmentlist"
    },
    {
      "click": "action"
    },
    {
      "click": "edit"
    },
    {
      "click": "Save"
    }

  ]
}