{
  "Meta": {
  },
  "data": {
    "Add": {
      "type": "button",
      "mandatory": false,
      "xpath": "//label[contains(text(),'Add')]",
      "tcpath": []
    },
    "prefix": {
      "type": "textbox",
      "mandatory": true,
      "xpath": "//gc-mat-textbox//input[@data-placeholder=\"Prefix\"]",
      "tcpath": [
        "",
        "name"
      ]
    },
    "type": {
      "type": "dropdown",
      "mandatory": true,
      "xpath": "//mat-label[contains(text(),'Type')]",
      "tcpath": [
        "",
        "prefixType"
      ]
    },
    "Gender": {
      "type": "dropdown",
      "mandatory": true,
      "xpath": "//mat-label[contains(text(),'Gender')]",
      "tcpath": [
        "",
        "applicableGender"
      ]
    },
    "relationship": {
      "type": "dropdown",
      "mandatory": true,
      "xpath": "//mat-label[contains(text(),'Relationship')]",
      "tcpath": [
        "",
        "relationship"
      ]
    },
    "save": {
      "type": "button",
      "mandatory": false,
      "xpath": "//label[contains(text(),'Save')]",
      "tcpath": []
    }
  }
}

