{
  "Meta": {
  },
  "data": {
    "action": {
      "type": "button",
      "mandatory": false,
      "xpath": "//tr[1]//mat-icon",
      "tcpath": []
    },
    "edit": {
      "type": "button",
      "mandatory": false,
      "xpath": "//mat-icon[contains(text(),'edit')]",
      "tcpath": []
    },
    "facilityId": {
      "type": "dropdown",
      "mandatory": false,
      "xpath": "//mat-form-field//mat-label[contains(text(),'Facility')]",
      "tcpath": ["","facilityId"]
    },
    "name": {
      "type": "textbox",
      "mandatory": true,
      "xpath": "//gc-mat-textbox//input[@data-placeholder=\"Registration Type\"]",
      "tcpath": ["","name"]
    },
    "regCategory": {
      "type": "dropdown",
      "mandatory": false,
      "xpath": "//span//label//mat-label[contains(text(),'Registration Category')]",
      "tcpath": ["","regCategory"]
    },
    "Save": {
      "type": "button",
      "mandatory": false,
      "xpath": "//label[contains(text(),'Save')]",
      "tcpath": []
    }
  }
}