{
  "Meta": {
  },
  "data": {
    "EditResult": {
      "type": "button",
      "mandatory": false,
      "xpath": "//tr[1]//mat-icon",
      "tcpath": []
    },
    "Clickresultentry": {
      "type": "button",
      "mandatory": false,
      "xpath": "//span[contains(text(),'Result Entry')]",
      "tcpath": []
    },
    "TypeResult": {
      "type": "textbox",
      "mandatory": true,
      "xpath": "//input[@name=\"row_result\"]",
      "tcpath": ["", "result"]
    },
    "Save": {
      "type": "button",
      "mandatory": false,
      "xpath": "//label[contains(text(),'Save')]",
      "tcpath": []
    }
  }
}