{
  "Meta": {
  },
  "data": {
    "EditAppointment": {
      "type": "button",
      "mandatory": false,
      "xpath": "//tr[1]//mat-icon",
      "tcpath": []
    },
    "ClickSettlement": {
      "type": "button",
      "mandatory": false,
      "xpath": "//span[contains(text(),'Settlement')]",
      "tcpath": []
    },
    "SettlementSection": {
      "type": "button",
      "mandatory": false,
      "xpath": "//div[contains(text(),'Settlement')]",
      "tcpath": []
    },
    "PartialSettlement": {
      "type": "button",
      "mandatory": false,
      "xpath": "//mat-radio-button[2]//input[@name=\"mat-radio-group-0\"]",
      "tcpath": []
    },
    "partialSettlementReason": {
      "type": "textbox",
      "mandatory": false,
      "xpath": "//input[@data-placeholder=\"Partial Settlement Reason\"]",
      "tcpath": ["invoiceMasterDetail","partialSettlementReason"]
    },
    "PaymentSection": {
      "type": "button",
      "mandatory": false,
      "xpath": "//div[contains(text(),'Payment')]",
      "tcpath": []
    },
    "paidAmount": {
      "type": "textbox",
      "mandatory": false,
      "xpath": "//input[@data-placeholder=\"Collected\"]",
      "tcpath": ["invoiceMasterDetail","totalPayableAmount"]
    },
    "AddAmount": {
      "type": "button",
      "mandatory": false,
      "xpath": "//div[1]//input[@type='button']",
      "tcpath": []
    },
    "SaveInvoice": {
      "type": "button",
      "mandatory": false,
      "xpath": "//button[contains(text(),'Save')]",
      "tcpath": []
    }
  }
}