{
  "meta": {
    "testCaseId": "TC01_Add Patient",
    "entity": "patientEntity.json",
    "date": "15-09-2021"
  },
  "data": [
    {
      "patregi": {
        "registrationDate": "2021-09-30T11:49:00.000Z",
        "fromTime": "11:49",
        "status": "ACTIVE",
        "validTill": "2022-09-29T06:19:24.621Z",
        "code": "Auto generated",
        "registrationtypeId": "d25c269f-fc50-488b-864d-d810ac",
        "patienttypeId": "38c34b04-a0ec-45a8-9731-546abc4c3928",
        "newborn": false,
        "patientprefixId": "9e81d2c1-c8e0-4b5c-86a4-89497182fc20",
        "firstName": "Pranav",
        "gender": "MALE",
        "lastName": "Prajapati",
        "dob": "1982/07/15"
      },
      "patientContactDetail": {
        "residentType": "Urban",
        "village": "",
        "houseNumber": "Hno 67",
        "street": "Lake View Colony",
        "countryId": "489944c1-d47d-4bc1-922e-d013932309c9",
        "stateId": "47a6f83a-1072-42ec-93f4-35c8340bb73f",
        "cityId": "f904b7aa-e70a-4e95-b0b2-0b2f40ba1b4a",
        "pincode": "896523",
        "mobileNo": "9856987854",
        "emailId": "dinesh@gmail.com",
        "contactType": "ContactDetail",
        "districtId": "00000000-0000-0000-0000-000000000000",
        "district": "00000000-0000-0000-0000-000000000000"
      },
      "patientEmergencyContactDetails": {
        "residentType": "Urban",
        "village": "",
        "contactType": "EmergencyDetail",
        "countryId": "00000000-0000-0000-0000-000000000000",
        "stateId": "00000000-0000-0000-0000-000000000000",
        "cityId": "00000000-0000-0000-0000-000000000000",
        "districtId": "00000000-0000-0000-0000-000000000000"
      },
      "patientDeathDetail": {
        "deceasedDatetime": "2021/09/30",
        "deceased": false
      },
      "patientFingerPrintDetail": {},
      "patientGuardianDetails": {
        "regCategory": "GEENRALCATEGORY",
        "guardianRelationshipSalutation": "82b68038-143f-49a5-98c5-7fc7b1958f0a",
        "guardianPrefixId": "9e81d2c1-c8e0-4b5c-86a4-89497182fc20",
        "guardianFirstName": "Pratheek",
        "guardianLastName": "Choudhary"
      },
      "patientInsuranceCardImage": {},
      "patientPersonalInfo": {
        "maritalStatusId": "fd891f11-a663-497e-984b-a74990d983af",
        "nationalityId": "489944c1-d47d-4bc1-922e-d013932309c9",
        "religionId": "15d2124a-d2b2-4be6-89db-337c908df892",
        "occupationId": "c6929d13-8374-4d2a-af68-cee13fac5753"
      },
      "patientPersonalIdentificationDetails": [
        {
          "srNo": 1,
          "identificationTypeId": "39b57476-e64d-4e84-bc36-3d88ec7966d1",
          "identificationType": "",
          "identificationNo": "785412547896",
          "validTill": "2021-09-30T06:20:48.427Z",
          "rowIdentifier": "3417271d-e493-491f-a2fb-9e8cae9625a0"
        }
      ],
      "patientPhotographDetail": {},
      "patientReferralDetails": {
        "referringDate": "2021-09-30T06:19:27.295Z",
        "referredToType": "Doctor"
      },
      "patientSignatureDetail": {}
    }
  ]
}