{
  "meta": {
    "testCaseId": "TC03_Add Appointment",
    "entity": "editregistrationtype.json",
    "entityPath": "resources/entity/Registration Type/"
  },
  "data": [
    {
      "NavigateByURL": "https://app.softclinicgenx.com/patient/registration-types/"
    },
    {
      "facilityId": " Starjvs Hospital 1 ",
      "regCategory": " General Category ",
      "code": "Auto generated",
      "name": "New Born3",
      "registrationParamInfoDetail": [
        {
          "patientRegistrationFeature": "PERSONALIDENTIFICATION",
          "patientRegistrationFeatureDisplay": "Personal Identification",
          "enableDisplay": "True",
          "expandDisplay": "True",
          "enable": true,
          "expand": true,
          "applicableVisitType": "OPIP",
          "srno": 1,
          "rowIdentifier": "9ca1d950-9b52-4de9-8d31-f73154dc61b2"
        },
        {
          "patientRegistrationFeature": "CONTACTDETAIL",
          "patientRegistrationFeatureDisplay": "Contact Detail",
          "enableDisplay": "True",
          "expandDisplay": "True",
          "enable": true,
          "expand": true,
          "applicableVisitType": "OPIP",
          "srno": 2,
          "rowIdentifier": "65bbde2c-1f88-4350-8bb2-072c394dee64"
        },
        {
          "patientRegistrationFeature": "EMERGENCYCONTACTDETAIL",
          "patientRegistrationFeatureDisplay": "Emergency Contact Detail",
          "enableDisplay": "True",
          "expandDisplay": "True",
          "enable": true,
          "expand": true,
          "applicableVisitType": "OPIP",
          "srno": 3,
          "rowIdentifier": "835c1b61-a994-4f0a-8d66-42441055ab6a"
        },
        {
          "patientRegistrationFeature": "REFFERALDETAIL",
          "patientRegistrationFeatureDisplay": "Referral Detail",
          "enableDisplay": "True",
          "expandDisplay": "True",
          "enable": true,
          "expand": true,
          "applicableVisitType": "OPIP",
          "srno": 4,
          "rowIdentifier": "02b07eb4-8554-4f89-8c67-3eda7eb0365c"
        },
        {
          "patientRegistrationFeature": "BIOMETRIXDETAIL",
          "patientRegistrationFeatureDisplay": "Biometrics Details",
          "enableDisplay": "True",
          "expandDisplay": "True",
          "enable": true,
          "expand": true,
          "applicableVisitType": "OPIP",
          "srno": 5,
          "rowIdentifier": "b676a7bb-fe96-4c80-b125-2039105fe0f8"
        },
        {
          "patientRegistrationFeature": "INSURANCEDETAIL",
          "patientRegistrationFeatureDisplay": "Insurance Detail",
          "enableDisplay": "True",
          "expandDisplay": "True",
          "enable": true,
          "expand": true,
          "applicableVisitType": "OPIP",
          "srno": 6,
          "rowIdentifier": "96fdb42c-400d-445b-8562-f5ef9de63c7d"
        },
        {
          "patientRegistrationFeature": "PATIENTDEATHDETAIL",
          "patientRegistrationFeatureDisplay": "Patient Death Detail",
          "enableDisplay": "True",
          "expandDisplay": "True",
          "enable": true,
          "expand": true,
          "applicableVisitType": "OPIP",
          "srno": 7,
          "rowIdentifier": "da0cacf5-160e-49fd-bbe2-1dd9192ce2fb"
        }
      ],
      "patientQueueDetails": [],
      "patientRegistrationFeeDetail": [],
      "patientRegistrationRenewalDetail": [],
      "patientRegistrationReprintDetail": [],
      "status": "ACTIVE",
      "patientQueueMaster": {},
      "patientRegistrationFee": {}
    },
    {
      "click": "Add"
    },
    {
      "click": "Save"
    }

  ]
}