{
  "meta": {
    "Module": "Login",
    "testCaseId": "TC01_Add Patient",
    "entity": "loginEntity.json",
    "entityPath": "resources/entity/Login/"
  },
  "data": [
    {
      "LoginCases": [
        {
          "type": {
            "EmailID": "divs@jvsgroup.com",
            "Password": "Divyesh@123"
          }
        },
        {
          "complete": "yes"
        }
      ]
    }
  ]
}